simulation/qsim/SequenceCounter.msim.vcd
$comment
	File created using the following command:
		vcd file SequenceCounter.msim.vcd -direction
$end
$date
	Tue Nov 22 13:28:06 2022
$end
$version
	ModelSim Version 2020.1
$end
$timescale
	1ps
$end

$scope module SequenceCounter_vlg_vec_tst $end
$var reg 1 ! clk $end
$var reg 1 " reset $end
$var wire 1 # Q0out $end
$var wire 1 $ Q1out $end
$var wire 1 % Q2out $end
$var wire 1 & s0 $end
$var wire 1 ' s1 $end
$var wire 1 ( s2 $end
$var wire 1 ) s3 $end
$var wire 1 * s4 $end
$var wire 1 + s5 $end
$var wire 1 , s6 $end

$scope module i1 $end
$var wire 1 - gnd $end
$var wire 1 . vcc $end
$var wire 1 / unknown $end
$var tri1 1 0 devclrn $end
$var tri1 1 1 devpor $end
$var tri1 1 2 devoe $end
$var wire 1 3 ~QUARTUS_CREATED_GND~I_combout $end
$var wire 1 4 clk~input_o $end
$var wire 1 5 clk~inputCLKENA0_outclk $end
$var wire 1 6 reset~input_o $end
$var wire 1 7 inst7~DUPLICATE_q $end
$var wire 1 8 inst6~DUPLICATE_q $end
$var wire 1 9 inst5~0_combout $end
$var wire 1 : inst5~q $end
$var wire 1 ; inst6~0_combout $end
$var wire 1 < inst6~q $end
$var wire 1 = inst4~0_combout $end
$var wire 1 > inst4~q $end
$var wire 1 ? inst5~DUPLICATE_q $end
$var wire 1 @ inst7~0_combout $end
$var wire 1 A inst7~q $end
$var wire 1 B inst|81~combout $end
$var wire 1 C inst|82~0_combout $end
$var wire 1 D inst|4~0_combout $end
$var wire 1 E inst|84~0_combout $end
$var wire 1 F inst|85~combout $end
$var wire 1 G inst|86~0_combout $end
$var wire 1 H inst|87~combout $end
$upscope $end
$upscope $end
$enddefinitions $end
#0
$dumpvars
0!
0"
1#
0$
0%
1&
0'
0(
1)
1*
1+
1,
0-
1.
x/
10
11
12
03
04
05
06
07
08
19
0:
0;
0<
0=
0>
0?
1@
0A
1B
0C
0D
1E
1F
1G
1H
$end
#10000
1!
14
15
#20000
0!
04
05
#30000
1!
14
15
#40000
0!
04
05
#50000
1!
14
15
#60000
0!
04
05
#70000
1!
14
15
#80000
0!
04
05
#90000
1!
14
15
#100000
0!
04
05
#110000
1!
14
15
#120000
0!
04
05
#130000
1!
14
15
#140000
0!
04
05
#150000
1!
14
15
#160000
0!
04
05
#170000
1!
14
15
#180000
0!
04
05
#190000
1!
14
15
#200000
0!
04
05
#210000
1!
14
15
#220000
0!
04
05
#230000
1!
14
15
#240000
0!
04
05
#250000
1!
14
15
#260000
0!
04
05
#270000
1!
14
15
#280000
0!
04
05
#290000
1!
14
15
#300000
0!
04
05
#310000
1!
14
15
#320000
1"
0!
16
04
05
#330000
1!
14
15
1A
1:
17
1?
1%
0#
1;
09
0H
0G
0@
0+
0,
#340000
0!
04
05
#350000
1!
14
15
0A
0:
18
07
0?
1<
1$
0%
1#
19
1G
0E
0B
0&
0)
1+
#360000
0!
04
05
#370000
1!
14
15
1:
1?
1%
0;
1H
1E
1)
1,
#380000
0!
04
05
#390000
1!
14
15
08
0<
0$
09
0H
0G
0E
1C
1=
1;
1'
0)
0+
0,
#400000
0!
04
05
#410000
1!
14
15
1>
0:
18
0?
1<
1$
0%
1@
0=
1G
0C
0'
1+
#420000
0!
04
05
#430000
1!
14
15
1A
0>
17
0#
0;
0@
0F
1D
1(
0*
#440000
0!
04
05
#450000
1!
14
15
0A
08
07
0<
0$
1#
19
1@
1H
1F
1E
0D
1B
1&
0(
1)
1*
1,
#460000
0!
04
05
#470000
1!
14
15
1A
1:
17
1?
1%
0#
1;
09
0H
0G
0@
0+
0,
#480000
0!
04
05
#490000
1!
14
15
0A
0:
18
07
0?
1<
1$
0%
1#
19
1G
0E
0B
0&
0)
1+
#500000
0!
04
05
#510000
1!
14
15
1:
1?
1%
0;
1H
1E
1)
1,
#520000
0!
04
05
#530000
1!
14
15
08
0<
0$
09
0H
0G
0E
1C
1=
1;
1'
0)
0+
0,
#540000
0!
04
05
#550000
1!
14
15
1>
0:
18
0?
1<
1$
0%
1@
0=
1G
0C
0'
1+
#560000
0!
04
05
#570000
1!
14
15
1A
0>
17
0#
0;
0@
0F
1D
1(
0*
#580000
0!
04
05
#590000
1!
14
15
0A
08
07
0<
0$
1#
19
1@
1H
1F
1E
0D
1B
1&
0(
1)
1*
1,
#600000
0!
04
05
#610000
1!
14
15
1A
1:
17
1?
1%
0#
1;
09
0H
0G
0@
0+
0,
#620000
0!
04
05
#630000
1!
14
15
0A
0:
18
07
0?
1<
1$
0%
1#
19
1G
0E
0B
0&
0)
1+
#640000
0"
0!
06
04
05
08
0<
0$
1@
1H
1E
1B
0;
1&
1)
1,
#650000
1!
14
15
#660000
0!
04
05
#670000
1!
14
15
#680000
0!
04
05
#690000
1!
14
15
#700000
0!
04
05
#710000
1!
14
15
#720000
0!
04
05
#730000
1!
14
15
#740000
0!
04
05
#750000
1!
14
15
#760000
0!
04
05
#770000
1!
14
15
#780000
0!
04
05
#790000
1!
14
15
#800000
0!
04
05
#810000
1!
14
15
#820000
0!
04
05
#830000
1!
14
15
#840000
0!
04
05
#850000
1!
14
15
#860000
0!
04
05
#870000
1!
14
15
#880000
0!
04
05
#890000
1!
14
15
#900000
0!
04
05
#910000
1!
14
15
#920000
0!
04
05
#930000
1!
14
15
#940000
0!
04
05
#950000
1!
14
15
#960000
1"
0!
16
04
05
#970000
1!
14
15
1A
1:
17
1?
1%
0#
1;
09
0H
0G
0@
0+
0,
#980000
0!
04
05
#990000
1!
14
15
0A
0:
18
07
0?
1<
1$
0%
1#
19
1G
0E
0B
0&
0)
1+
